%YAML 1.1
%TAG !u! tag:unity3d.com,2011:
--- !u!221 &22100000
AnimatorOverrideController:
  m_ObjectHideFlags: 0
  m_CorrespondingSourceObject: {fileID: 0}
  m_PrefabInstance: {fileID: 0}
  m_PrefabAsset: {fileID: 0}
  m_Name: Character
  m_Controller: {fileID: 9100000, guid: 472cf97f8be156e46ab7df6bb52f7dd4, type: 2}
  m_Clips:
  - m_OriginalClip: {fileID: 7400000, guid: dfa7fb566ed213148a089722ff4e6925, type: 2}
    m_OverrideClip: {fileID: 7400000, guid: e247aeb0b3a4b7d4194decf48f8b7a26, type: 2}
  - m_OriginalClip: {fileID: 7400000, guid: ef63792df1d693b47b626f8520939f61, type: 2}
    m_OverrideClip: {fileID: 7400000, guid: e247aeb0b3a4b7d4194decf48f8b7a26, type: 2}
  - m_OriginalClip: {fileID: 7400000, guid: 18c18fcf343a6c54ab2e89cb11ed3b80, type: 2}
    m_OverrideClip: {fileID: 7400000, guid: ebd282000440c0c4297fe3422741f6c1, type: 2}
  - m_OriginalClip: {fileID: 7400000, guid: 9295567e41b14de479580e65a9837281, type: 2}
    m_OverrideClip: {fileID: 7400000, guid: ebd282000440c0c4297fe3422741f6c1, type: 2}
  - m_OriginalClip: {fileID: 7400000, guid: 4dacc9739242c4241a5b16ee884df6be, type: 2}
    m_OverrideClip: {fileID: 7400000, guid: 3ab65644405d9124a8f58bcb0341f1b8, type: 2}
  - m_OriginalClip: {fileID: 7400000, guid: c1803689e59fe3849a2fcfdab4644279, type: 2}
    m_OverrideClip: {fileID: 7400000, guid: 3ab65644405d9124a8f58bcb0341f1b8, type: 2}
  - m_OriginalClip: {fileID: 7400000, guid: b9e2bb1e35ca87d488a57836f3f7a89e, type: 2}
    m_OverrideClip: {fileID: 7400000, guid: ebd282000440c0c4297fe3422741f6c1, type: 2}
